%YAML 1.1
%TAG !u! tag:unity3d.com,2011:
--- !u!114 &11400000
MonoBehaviour:
  m_ObjectHideFlags: 0
  m_CorrespondingSourceObject: {fileID: 0}
  m_PrefabInstance: {fileID: 0}
  m_PrefabAsset: {fileID: 0}
  m_GameObject: {fileID: 0}
  m_Enabled: 1
  m_EditorHideFlags: 0
  m_Script: {fileID: 11500000, guid: 9210e38e57b674d9791eeaec07922e83, type: 3}
  m_Name: Chk_Blue_2
  m_EditorClassIdentifier: 
  MyIndex: 0
  Name: 
  Prefab: {fileID: 9175105701675211552, guid: 435b3116283b14f0db2e61d1a6d4bba2, type: 3}
  BiomeType: 1
  Obstacles:
  - {fileID: 11400000, guid: 7a8254fb520d746dabdd08b4a1b46306, type: 2}
  - {fileID: 11400000, guid: f7c3be412791742d7b21997ea2a0c356, type: 2}
  GenerateObstaclesMinYCoordinates:
  - -8.12
  - -0.21
  GenerateObstaclesMaxYCoordinates:
  - -4.88
  - 3.16
  Collectables: []
  GenerateCollectableMinYCoordinates: []
  GenerateCollectableMaxYCoordinates: []
  Boosters: []
  GenerateBoosterMinYCoordinates: []
  GenerateBoosterMaxYCoordinates: []
  Probability: 1
  IsChangeable: 1
