%YAML 1.1
%TAG !u! tag:unity3d.com,2011:
--- !u!114 &11400000
MonoBehaviour:
  m_ObjectHideFlags: 0
  m_CorrespondingSourceObject: {fileID: 0}
  m_PrefabInstance: {fileID: 0}
  m_PrefabAsset: {fileID: 0}
  m_GameObject: {fileID: 0}
  m_Enabled: 1
  m_EditorHideFlags: 0
  m_Script: {fileID: 11500000, guid: 679fbca09d7cc450fbd335488fc68d14, type: 3}
  m_Name: Ob_Bird
  m_EditorClassIdentifier: 
  ObstacleType: 2
  Prefab: {fileID: 486032963884819689, guid: b88fa7246b8a04bf981a2d494a167c67, type: 3}
  IsFlipAble: 0
  Is2Pos: 0
  Is2Side: 0
  IsOnePos: 1
