%YAML 1.1
%TAG !u! tag:unity3d.com,2011:
--- !u!114 &11400000
MonoBehaviour:
  m_ObjectHideFlags: 0
  m_CorrespondingSourceObject: {fileID: 0}
  m_PrefabInstance: {fileID: 0}
  m_PrefabAsset: {fileID: 0}
  m_GameObject: {fileID: 0}
  m_Enabled: 1
  m_EditorHideFlags: 0
  m_Script: {fileID: 11500000, guid: 9210e38e57b674d9791eeaec07922e83, type: 3}
  m_Name: Ck_Blue_2
  m_EditorClassIdentifier: 
  MyIndex: 0
  Name: 
  Prefab: {fileID: 1734804326046089284, guid: 8866789de441d497bb825de5ac06aaad, type: 3}
  BiomeType: 1
  Obstacles:
  - {fileID: 11400000, guid: cdba3c826207b4a09a30f681e361999e, type: 2}
  GenerateObstaclesMinYCoordinates:
  - 1.77
  GenerateObstaclesMaxYCoordinates:
  - 2.82
  Collectables:
  - {fileID: 11400000, guid: c13788eee9748404ab24bc1cc7984165, type: 2}
  GenerateCollectableMinYCoordinates:
  - -8.04
  GenerateCollectableMaxYCoordinates:
  - -5.71
  Boosters: []
  GenerateBoosterMinYCoordinates: []
  GenerateBoosterMaxYCoordinates: []
  Probability: 1
  IsChangeable: 0
