%YAML 1.1
%TAG !u! tag:unity3d.com,2011:
--- !u!114 &11400000
MonoBehaviour:
  m_ObjectHideFlags: 0
  m_CorrespondingSourceObject: {fileID: 0}
  m_PrefabInstance: {fileID: 0}
  m_PrefabAsset: {fileID: 0}
  m_GameObject: {fileID: 0}
  m_Enabled: 1
  m_EditorHideFlags: 0
  m_Script: {fileID: 11500000, guid: 9210e38e57b674d9791eeaec07922e83, type: 3}
  m_Name: Ck_Red_2
  m_EditorClassIdentifier: 
  MyIndex: 0
  Name: 
  Prefab: {fileID: 1734804326046089284, guid: 8866789de441d497bb825de5ac06aaad, type: 3}
  BiomeType: 2
  Obstacles:
  - {fileID: 11400000, guid: e205576033ab542d89e2b460364d8b02, type: 2}
  - {fileID: 11400000, guid: 7a8254fb520d746dabdd08b4a1b46306, type: 2}
  GenerateObstaclesMinYCoordinates:
  - 0.24
  - -8.16
  GenerateObstaclesMaxYCoordinates:
  - 1.94
  - -7.03
  Collectables:
  - {fileID: 11400000, guid: c13788eee9748404ab24bc1cc7984165, type: 2}
  GenerateCollectableMinYCoordinates:
  - 4.79
  GenerateCollectableMaxYCoordinates:
  - 6.79
  Boosters: []
  GenerateBoosterMinYCoordinates: []
  GenerateBoosterMaxYCoordinates: []
  Probability: 3
  IsChangeable: 0
